{
  "status":200,
  "error":"",
  "data":[
    {
      "id":"1",
      "name":"Nature"
    },
    {
      "id":"2",
      "name":"Abstract"
    },
    {
      "id":"3",
      "name":"Animals"
    },
    {
      "id":"4",
      "name":"Anime"
    },
    {
      "id":"5",
      "name":"Flowers"
    },
    {
      "id":"6",
      "name":"Music"
    },
    {
      "id":"7",
      "name":"Technologies"
    },
    {
      "id":"8",
      "name":"Vector"
    },
    {
      "id":"9",
      "name":"Movies"
    },
    {
      "id":"10",
      "name":"Motorcycles"
    }
  ]
}